{
  "type": "service_account",
  "project_id": "gcp-digital-xceed-bot-prd",
  "private_key_id": "fca7bebdd603dea3d9bc2085f976a01ab60e3a76",
  "private_key": "-----BEGIN PRIVATE KEY-----\nMIIEvgIBADANBgkqhkiG9w0BAQEFAASCBKgwggSkAgEAAoIBAQDSDZg0EMCARjgk\nIOxV5zdi8Q/Tw8JvqnFGLyei79o+tm098U0kJrGBPadA0YOMyW01tYNSvqBGgk7L\nD/S4U76cOcG3ToSwzwNyiLCATaeoKK8ZvVB3ed+mZeKUykYc03MJ+MZPMYG+av3r\n9sZbfzfc1t20Q5mfWG+0dS3nUgFrNFx5x48WTibAS3mmwpUzfuvLgf9AaG79yYIF\nI5BHEd02u7i0TA81U6d+Dj7qcqvx8tSF2I63ccW94y5GYLjqNCWrdyZ57MjYDZ8G\nho5Op2TG7n9zwJSruhpvBrGm50tk+CrsyCJ4FJ4lWzRpNWzqnHv1HDKrxc8JKtHK\nSCWfXR1LAgMBAAECggEAClvhRbANzkWoPx/gh9v/P0HkJe1hiWA+ddedfMuXV8Bn\nYsajp0TBPD5uISQz+J12ZU+uSkZcYR3MBPekefKnU80FYKTeplmPMfbLvYgW3JQl\nDn/nl/zKqsobgnr3OjSzV6qNHRqz61AbdaeV4K1Fc/6ksF8lFFaoK54bxWyl5UN4\n4a2YJFlJtmvQnONlMuaY0tAm2CeMoEU28T8oPsnRZGpkqLt+8A2tfkgxY49ZWJGP\nQUOJlpCe8Q3PeXMm9fUlQMCM/J5QbU8FBiQMMLQCCzup87nVaVtuovWM3bzBoQ6u\nzjbBjLfXf1GnebPK5Kp3cz3XtDFM0pVX8ymDupGUAQKBgQD2naEDQiYqrmGWKA9Q\nLDQ/JgVAvUZInAPrIRZkLa2PTvRKUT4yP4I6k7EZGW3IpVz/Gsn71x5uk91BlBLv\nnVZfJ/kY9Jmtwr4uNDPTtzzsQ4aRCMLXdbFLpaCwx4aKMOYyvOIOlxSXouqlaRFY\nbAbmoMV3SslJ0WiQaUggycYKUQKBgQDaC8vJxhoylouMoJnB/sDf3InremOsGWNv\nF4dZ4ru8TX+9+x7/h9QniFRNcKTQ7fB2JSH9zIHLoCRMcDHfY/ySFgrnuahALrNf\n8AU8v/RkS9M+Ts9kPta/tMoi1Homw0DfFhyXZ9w01Vu+QmqvtKeiLyrGn6O6I09c\nlhyfH/Eq2wKBgQDEQHJWfniS9IxyCtUMzvCQ5De/6h+ZPpabsYv5EqSQa5tZ3Mcr\nA4EmDkwbljHYP0f/NplQEUOFaaPkQOrExidquAuxwUzeix/+8snfjG0t8xqOJjOv\ndFgvw9FZfJ5jMECwVcFrLO1VMm+aTD9iZy0isQQTR29hkASvDyk39nnj0QKBgQDB\nzhhNeOpSKqNQ1HK2DoRKtdBU4Az1q/9If+ZLS49IWK4BI9Kyl31HwhIEXunv1n2T\n1X94Aa0gW2/IDTUW9N1Kz5LT0p4sphXDYSiWjZthBlB1okEOPhhMfxnniWolSAlC\nAHpbTPJad4W6/3eqQu1452mi78PsL3RbvAUmnpKSXwKBgB1c+8x97rQS1EohPGDW\nzDGxqekokVh2kmaxO2zf98vBXPO2Ac7rvv34ob3QLdVrXhIIjK1gWSuhu6fAl8E8\nEQUVTUwvO8q4LappWBnR92ZtEicxjoLDM4v3gBG2Ay87llg4jYRLLeA+qfL8v/oS\nh3ftzI1R5EBpjDVks6Fic2iA\n-----END PRIVATE KEY-----\n",
  "client_email": "googleservicespsai-cloud-trans@gcp-digital-xceed-bot-prd.iam.gserviceaccount.com",
  "client_id": "106036723225609512829",
  "auth_uri": "https://accounts.google.com/o/oauth2/auth",
  "token_uri": "https://oauth2.googleapis.com/token",
  "auth_provider_x509_cert_url": "https://www.googleapis.com/oauth2/v1/certs",
  "client_x509_cert_url": "https://www.googleapis.com/robot/v1/metadata/x509/googleservicespsai-cloud-trans%40gcp-digital-xceed-bot-prd.iam.gserviceaccount.com"
}
