
 DateTime: 2020-10-01 03:46:54 
 Error: TypeError: Cannot read property 'new_file_name' of undefined 
 Line No : 1052 
 File Path:     at /var/www/html/drreddy/portal-api/models/task.js 

 DateTime: 2020-10-01 03:54:59 
 ReferenceError: to_details is not defined 
 Line No : 10121 
 File Path: /var/www/html/drreddy/portal-api/controllers/task.js 

 DateTime: 2020-10-01 05:36:15 
 TypeError: Cannot read property 'id' of undefined 
 Line No : 49 
 File Path: /var/www/html/drreddy/portal-api/controllers/sap.js 

 DateTime: 2020-10-01 05:53:24 
 Error: error: syntax error at or near "tbl_sap_request" 
 Line No : 247 
 File Path:     at /var/www/html/drreddy/portal-api/models/sap.js 

 DateTime: 2020-10-01 14:19:27 
 Error: RangeError: Variable $6 out of range. Parameters array length: 5 
 Line No : 48 
 File Path:     at /var/www/html/drreddy/portal-api/models/sap.js 

 DateTime: 2020-10-01 14:25:39 
 ReferenceError: dateFormat is not defined 
 Line No : 448 
 File Path:     at /var/www/html/drreddy/portal-api/controllers/sap.js 

 DateTime: 2020-10-01 14:27:06 
 ReferenceError: str is not defined 
 Line No : 451 
 File Path:     at /var/www/html/drreddy/portal-api/controllers/sap.js 

 DateTime: 2020-10-01 14:32:12 
 ReferenceError: entities is not defined 
 Line No : 458 
 File Path:     at /var/www/html/drreddy/portal-api/controllers/sap.js 

 DateTime: 2020-10-01 14:35:55 
 Error: error: INSERT has more target columns than expressions 
 Line No : 262 
 File Path:     at /var/www/html/drreddy/portal-api/models/sap.js 

 DateTime: 2020-10-01 17:02:47 
 ReferenceError: str is not defined 
 Line No : 612 
 File Path:     at /var/www/html/drreddy/portal-api/controllers/sap.js 

 DateTime: 2020-10-01 18:30:52 
 Error: Request failed with status code 503 
 Line No : 16 
 File Path: /var/www/html/drreddy/portal-api/node_modules/axios/lib/core/createError.js 

 DateTime: 2020-10-01 19:47:01 
 ReferenceError: err is not defined 
 Line No : 706 
 File Path:     at /var/www/html/drreddy/portal-api/controllers/sap.js 

 DateTime: 2020-10-01 20:19:09 
 ReferenceError: request_type is not defined 
 Line No : 10223 
 File Path: /var/www/html/drreddy/portal-api/controllers/task.js 

 DateTime: 2020-10-02 12:30:20 
 Error: Request failed with status code 503 
 Line No : 16 
 File Path: /var/www/html/drreddy/portal-api/node_modules/axios/lib/core/createError.js 

 DateTime: 2020-10-03 14:16:10 
 ReferenceError: reference_no is not defined 
 Line No : 240 
 File Path: /var/www/html/drreddy/portal-api/controllers/sap.js 

 DateTime: 2020-10-03 14:17:55 
 ReferenceError: reference_no is not defined 
 Line No : 240 
 File Path: /var/www/html/drreddy/portal-api/controllers/sap.js 

 DateTime: 2020-10-03 15:12:47 
 ReferenceError: reservation_no is not defined 
 Line No : 239 
 File Path: /var/www/html/drreddy/portal-api/controllers/sap.js 

 DateTime: 2020-10-03 17:28:42 
 Error: error: null value in column "product_sku" violates not-null constraint 
 Line No : 16 
 File Path:     at /var/www/html/drreddy/portal-api/models/sap.js 

 DateTime: 2020-10-03 17:30:10 
 Error: error: null value in column "product_sku" violates not-null constraint 
 Line No : 16 
 File Path:     at /var/www/html/drreddy/portal-api/models/sap.js 

 DateTime: 2020-10-03 17:31:02 
 Error: error: null value in column "product_sku" violates not-null constraint 
 Line No : 16 
 File Path:     at /var/www/html/drreddy/portal-api/models/sap.js 

 DateTime: 2020-10-03 17:32:28 
 Error: error: null value in column "user_id" violates not-null constraint 
 Line No : 16 
 File Path:     at /var/www/html/drreddy/portal-api/models/sap.js 

 DateTime: 2020-10-04 18:42:01 
 Error: error: syntax error at or near ")" 
 Line No : 95 
 File Path:     at /var/www/html/drreddy/portal-api/models/sap.js 

 DateTime: 2020-10-04 18:44:07 
 Error: error: syntax error at or near ")" 
 Line No : 95 
 File Path:     at /var/www/html/drreddy/portal-api/models/sap.js 

 DateTime: 2020-10-04 18:51:10 
 Error: error: syntax error at or near ")" 
 Line No : 95 
 File Path:     at /var/www/html/drreddy/portal-api/models/sap.js 

 DateTime: 2020-10-04 18:59:21 
 Error: error: syntax error at or near ")" 
 Line No : 95 
 File Path:     at /var/www/html/drreddy/portal-api/models/sap.js 

 DateTime: 2020-10-04 19:35:57 
 ReferenceError: so_id is not defined 
 Line No : 286 
 File Path:     at /var/www/html/drreddy/portal-api/models/sap.js 

 DateTime: 2020-10-04 19:35:57 
 ReferenceError: so_id is not defined 
 Line No : 286 
 File Path:     at /var/www/html/drreddy/portal-api/models/sap.js 

 DateTime: 2020-10-04 19:35:57 
 Error [ERR_HTTP_HEADERS_SENT]: Cannot set headers after they are sent to the client 
 Line No : 470 
 File Path: _http_outgoing.js 

 DateTime: 2020-10-04 19:35:57 
 Error [ERR_HTTP_HEADERS_SENT]: Cannot set headers after they are sent to the client 
 Line No : 470 
 File Path: _http_outgoing.js 

 DateTime: 2020-10-04 21:50:20 
 Error: error: null value in column "so_id" violates not-null constraint 
 Line No : 292 
 File Path:     at /var/www/html/drreddy/portal-api/models/sap.js 

 DateTime: 2020-10-04 22:09:31 
 Error: error: null value in column "so_id" violates not-null constraint 
 Line No : 292 
 File Path:     at /var/www/html/drreddy/portal-api/models/sap.js 

 DateTime: 2020-10-04 22:21:18 
 ReferenceError: index is not defined 
 Line No : 510 
 File Path:     at /var/www/html/drreddy/portal-api/controllers/sap.js 

 DateTime: 2020-10-05 01:24:58 
 TypeError: Cannot read property 'request_id' of undefined 
 Line No : 1188 
 File Path:     at /var/www/html/drreddy/portal-api/controllers/sap.js 

 DateTime: 2020-10-05 19:09:40 
 Error: error: column "ce_id" of relation "tbl_task_discussion_uploads" does not exist 
 Line No : 2350 
 File Path:     at /var/www/html/drreddy/portal-api/models/task.js 

 DateTime: 2020-10-05 19:21:20 
 Error: error: column "ce_id" of relation "tbl_task_discussion_uploads" does not exist 
 Line No : 2350 
 File Path:     at /var/www/html/drreddy/portal-api/models/task.js 

 DateTime: 2020-10-05 19:22:05 
 Error: error: null value in column "new_file_name" violates not-null constraint 
 Line No : 2350 
 File Path:     at /var/www/html/drreddy/portal-api/models/task.js 

 DateTime: 2020-10-05 19:22:59 
 Error: error: null value in column "new_file_name" violates not-null constraint 
 Line No : 2350 
 File Path:     at /var/www/html/drreddy/portal-api/models/task.js 

 DateTime: 2020-10-07 18:33:59 
 ReferenceError: total_quantity is not defined 
 Line No : 1145 
 File Path:     at /var/www/html/drreddy/portal-api/controllers/sap.js 

 DateTime: 2020-10-07 18:35:48 
 ReferenceError: total_quantity is not defined 
 Line No : 1145 
 File Path:     at /var/www/html/drreddy/portal-api/controllers/sap.js 

 DateTime: 2020-10-08 14:40:17 
 TypeError: Cannot read property 'main_req' of undefined 
 Line No : 1352 
 File Path: /var/www/html/drreddy/portal-api/controllers/sap.js 

 DateTime: 2020-10-08 14:46:31 
 TypeError: Cannot read property 'main_ereq' of undefined 
 Line No : 1352 
 File Path: /var/www/html/drreddy/portal-api/controllers/sap.js 

 DateTime: 2020-10-08 15:12:50 
 TypeError: Cannot read property 'length' of undefined 
 Line No : 1352 
 File Path: /var/www/html/drreddy/portal-api/controllers/sap.js 

 DateTime: 2020-10-08 15:13:53 
 ReferenceError: empty is not defined 
 Line No : 1354 
 File Path: /var/www/html/drreddy/portal-api/controllers/sap.js 

 DateTime: 2020-10-08 15:31:13 
 TypeError: req.body.soapenv:envelope.soapenv:body.res:mt_sap_reservation_creation_update.indexOf is not a function 
 Line No : 1352 
 File Path: /var/www/html/drreddy/portal-api/controllers/sap.js 

 DateTime: 2020-10-08 15:34:26 
 TypeError: req.body.soapenv:envelope.soapenv:body.res:mt_sap_reservation_creation_update.indexOf is not a function 
 Line No : 1352 
 File Path: /var/www/html/drreddy/portal-api/controllers/sap.js 

 DateTime: 2020-10-08 15:34:37 
 TypeError: req.body.soapenv:envelope.soapenv:body.res:mt_sap_reservation_creation_update.indexOf is not a function 
 Line No : 1352 
 File Path: /var/www/html/drreddy/portal-api/controllers/sap.js 

 DateTime: 2020-10-08 18:00:43 
 ReferenceError: task_id is not defined 
 Line No : 1372 
 File Path: /var/www/html/drreddy/portal-api/controllers/sap.js 

 DateTime: 2020-10-09 12:29:22 
 TypeError: Cannot read property 'body' of undefined 
 Line No : 29 
 File Path: /var/www/html/drreddy/portal-api/controllers/sap.js 

 DateTime: 2020-10-09 12:29:38 
 TypeError: Cannot read property 'body' of undefined 
 Line No : 29 
 File Path: /var/www/html/drreddy/portal-api/controllers/sap.js 

 DateTime: 2020-10-09 12:30:08 
 TypeError: Cannot read property 'body' of undefined 
 Line No : 29 
 File Path: /var/www/html/drreddy/portal-api/controllers/sap.js 

 DateTime: 2020-10-09 12:32:17 
 TypeError: Cannot read property 'body' of undefined 
 Line No : 29 
 File Path: /var/www/html/drreddy/portal-api/controllers/sap.js 

 DateTime: 2020-10-09 12:33:38 
 TypeError: Cannot read property 'body' of undefined 
 Line No : 29 
 File Path: /var/www/html/drreddy/portal-api/controllers/sap.js 

 DateTime: 2020-10-09 12:35:31 
 TypeError: Cannot read property 'body' of undefined 
 Line No : 29 
 File Path: /var/www/html/drreddy/portal-api/controllers/sap.js 

 DateTime: 2020-10-09 12:35:46 
 ReferenceError: JWT is not defined 
 Line No : 32 
 File Path: /var/www/html/drreddy/portal-api/controllers/sap.js 

 DateTime: 2020-10-09 12:39:27 
 TypeError: Cannot read property 'task_id' of undefined 
 Line No : 1416 
 File Path:     at /var/www/html/drreddy/portal-api/controllers/sap.js 

 DateTime: 2020-10-09 12:40:37 
 TypeError: Cannot read property 'task_id' of undefined 
 Line No : 1416 
 File Path:     at /var/www/html/drreddy/portal-api/controllers/sap.js 

 DateTime: 2020-10-09 13:18:19 
 TypeError: Cannot read property 'task_id' of undefined 
 Line No : 1417 
 File Path:     at /var/www/html/drreddy/portal-api/controllers/sap.js 

 DateTime: 2020-10-11 21:04:42 
 TypeError: Cannot read property 'task_id' of undefined 
 Line No : 39 
 File Path:     at /var/www/html/drreddy/portal-api/controllers/sap_soap.js 

 DateTime: 2020-10-13 18:15:28 
 ReferenceError: dataAvail is not defined 
 Line No : 1409 
 File Path:     at /var/www/html/drreddy/portal-api/controllers/sap.js 

 DateTime: 2020-10-13 18:16:26 
 Error: ReferenceError: reservation is not defined 
 Line No : 449 
 File Path:     at /var/www/html/drreddy/portal-api/models/sap.js 

 DateTime: 2020-10-13 18:25:52 
 Error: ReferenceError: reservation is not defined 
 Line No : 449 
 File Path:     at /var/www/html/drreddy/portal-api/models/sap.js 

 DateTime: 2020-10-14 15:53:41 
 ReferenceError: req_name_by_lang is not defined 
 Line No : 10535 
 File Path: /var/www/html/drreddy/portal-api/controllers/task.js 

 DateTime: 2020-10-15 18:38:53 
 Error: error: null value in column "is_admin" violates not-null constraint 
 Line No : 16 
 File Path:     at /var/www/html/drreddy/portal-api/models/sap.js 

 DateTime: 2020-10-15 18:40:39 
 Error: error: null value in column "is_admin" violates not-null constraint 
 Line No : 16 
 File Path:     at /var/www/html/drreddy/portal-api/models/sap.js 

 DateTime: 2020-10-15 18:46:12 
 ReferenceError: as_admin is not defined 
 Line No : 235 
 File Path: /var/www/html/drreddy/portal-api/controllers/sap.js 

 DateTime: 2020-10-15 19:50:44 
 Error: error: null value in column "is_admin" violates not-null constraint 
 Line No : 16 
 File Path:     at /var/www/html/drreddy/portal-api/models/sap.js 

 DateTime: 2020-10-15 19:53:10 
 Error: error: null value in column "is_admin" violates not-null constraint 
 Line No : 16 
 File Path:     at /var/www/html/drreddy/portal-api/models/sap.js 

 DateTime: 2020-10-15 23:16:17 
 Error: RangeError: Variable $3 out of range. Parameters array length: 2 
 Line No : 485 
 File Path:     at /var/www/html/drreddy/portal-api/models/sap.js 

 DateTime: 2020-10-16 17:34:09 
 ReferenceError: mail_subject is not defined 
 Line No : 10917 
 File Path: /var/www/html/drreddy/portal-api/controllers/task.js 

 DateTime: 2020-10-16 17:34:11 
 ReferenceError: mail_subject is not defined 
 Line No : 10917 
 File Path: /var/www/html/drreddy/portal-api/controllers/task.js 

 DateTime: 2020-10-16 17:34:36 
 ReferenceError: mail_subject is not defined 
 Line No : 10917 
 File Path: /var/www/html/drreddy/portal-api/controllers/task.js 

 DateTime: 2020-10-16 17:34:38 
 ReferenceError: mail_subject is not defined 
 Line No : 10917 
 File Path: /var/www/html/drreddy/portal-api/controllers/task.js 

 DateTime: 2020-10-16 17:35:21 
 ReferenceError: mail_subject is not defined 
 Line No : 10917 
 File Path: /var/www/html/drreddy/portal-api/controllers/task.js 

 DateTime: 2020-10-16 17:36:13 
 ReferenceError: mail_subject is not defined 
 Line No : 10917 
 File Path: /var/www/html/drreddy/portal-api/controllers/task.js 

 DateTime: 2020-10-16 17:37:02 
 ReferenceError: mail_subject is not defined 
 Line No : 10917 
 File Path: /var/www/html/drreddy/portal-api/controllers/task.js 

 DateTime: 2020-10-16 17:37:56 
 ReferenceError: mail_subject is not defined 
 Line No : 10917 
 File Path: /var/www/html/drreddy/portal-api/controllers/task.js 

 DateTime: 2020-10-19 17:34:23 
 ReferenceError: is_admin is not defined 
 Line No : 314 
 File Path: /var/www/html/drreddy/portal-api/controllers/sap.js 

 DateTime: 2020-10-20 18:32:42 
 TypeError [ERR_INVALID_ARG_TYPE]: The first argument must be one of type string, Buffer, ArrayBuffer, Array, or Array-like Object. Received type object 
 Line No : 207 
 File Path: buffer.js 

 DateTime: 2020-10-20 18:32:45 
 TypeError [ERR_INVALID_ARG_TYPE]: The first argument must be one of type string, Buffer, ArrayBuffer, Array, or Array-like Object. Received type object 
 Line No : 207 
 File Path: buffer.js 

 DateTime: 2020-10-21 19:44:15 
 Error: Request failed with status code 503 
 Line No : 16 
 File Path: /var/www/html/drreddy/portal-api/node_modules/axios/lib/core/createError.js 
