
 DateTime: 2021-05-07 15:50:09 
 Error: error: syntax error at or near "LEFT" 
 Line No : 2781 
 File Path:     at /var/www/html/drreddy/portal-api/models/user.js 

 DateTime: 2021-05-13 17:48:38 
 Error: Request failed with status code 403 
 Line No : 16 
 File Path: /var/www/html/drreddy/portal-api/node_modules/axios/lib/core/createError.js 

 DateTime: 2021-05-13 18:26:59 
 Error: Request failed with status code 403 
 Line No : 16 
 File Path: /var/www/html/drreddy/portal-api/node_modules/axios/lib/core/createError.js 

 DateTime: 2021-05-13 18:27:00 
 Error: Request failed with status code 403 
 Line No : 16 
 File Path: /var/www/html/drreddy/portal-api/node_modules/axios/lib/core/createError.js 

 DateTime: 2021-05-13 18:30:23 
 Error: Request failed with status code 403 
 Line No : 16 
 File Path: /var/www/html/drreddy/portal-api/node_modules/axios/lib/core/createError.js 

 DateTime: 2021-05-13 18:43:06 
 Error: Request failed with status code 403 
 Line No : 16 
 File Path: /var/www/html/drreddy/portal-api/node_modules/axios/lib/core/createError.js 

 DateTime: 2021-05-13 18:44:48 
 Error: Request failed with status code 403 
 Line No : 16 
 File Path: /var/www/html/drreddy/portal-api/node_modules/axios/lib/core/createError.js 

 DateTime: 2021-05-13 18:46:13 
 Error: Request failed with status code 403 
 Line No : 16 
 File Path: /var/www/html/drreddy/portal-api/node_modules/axios/lib/core/createError.js 

 DateTime: 2021-05-13 18:48:29 
 Error: Request failed with status code 403 
 Line No : 16 
 File Path: /var/www/html/drreddy/portal-api/node_modules/axios/lib/core/createError.js 

 DateTime: 2021-05-13 18:49:49 
 Error: Request failed with status code 403 
 Line No : 16 
 File Path: /var/www/html/drreddy/portal-api/node_modules/axios/lib/core/createError.js 

 DateTime: 2021-05-21 19:39:03 
 Error: error: syntax error at or near "FROM" 
 Line No : 2689 
 File Path:     at /var/www/html/drreddy/portal-api/models/user.js 

 DateTime: 2021-05-24 10:20:18 
 Error: Request failed with status code 403 
 Line No : 16 
 File Path: /var/www/html/drreddy/portal-api/node_modules/axios/lib/core/createError.js 

 DateTime: 2021-05-24 14:54:37 
 TypeError: Cannot read property 'new_feature_11' of undefined 
 Line No : 846 
 File Path:     at /var/www/html/drreddy/portal-api/controllers/user.js 

 DateTime: 2021-05-24 15:13:36 
 TypeError: Cannot read property 'new_feature_11' of undefined 
 Line No : 846 
 File Path:     at /var/www/html/drreddy/portal-api/controllers/user.js 

 DateTime: 2021-05-24 15:22:57 
 Error: Request failed with status code 403 
 Line No : 16 
 File Path: /var/www/html/drreddy/portal-api/node_modules/axios/lib/core/createError.js 

 DateTime: 2021-05-24 15:23:05 
 Error: Request failed with status code 403 
 Line No : 16 
 File Path: /var/www/html/drreddy/portal-api/node_modules/axios/lib/core/createError.js 

 DateTime: 2021-05-24 15:33:22 
 Error: error: column "new_feature_11" does not exist 
 Line No : 193 
 File Path:     at /var/www/html/drreddy/portal-api/models/agents.js 

 DateTime: 2021-05-24 15:33:48 
 Error: error: column "new_feature_11" does not exist 
 Line No : 193 
 File Path:     at /var/www/html/drreddy/portal-api/models/agents.js 

 DateTime: 2021-05-24 15:36:15 
 Error: error: column "new_feature_11" does not exist 
 Line No : 193 
 File Path:     at /var/www/html/drreddy/portal-api/models/agents.js 

 DateTime: 2021-05-24 16:46:43 
 Error: error: column "new_feature_11" does not exist 
 Line No : 193 
 File Path:     at /var/www/html/drreddy/portal-api/models/agents.js 

 DateTime: 2021-05-25 14:34:16 
 Error: error: column "new_feature_11" does not exist 
 Line No : 193 
 File Path:     at /var/www/html/drreddy/portal-api/models/agents.js 

 DateTime: 2021-05-26 17:44:45 
 Error: error: column "new_feature_11" does not exist 
 Line No : 193 
 File Path:     at /var/www/html/drreddy/portal-api/models/agents.js 

 DateTime: 2021-05-27 01:00:52 
 Error: Request failed with status code 503 
 Line No : 16 
 File Path: /var/www/html/drreddy/portal-api/node_modules/axios/lib/core/createError.js 
