
 DateTime: 2020-02-06 16:46:41 
 Error: error: invalid input syntax for integer: "" 
 Line No : 636 
 File Path:     at /var/www/html/drreddy/portal-api/models/task.js 

 DateTime: 2020-02-06 16:46:51 
 Error: error: invalid input syntax for integer: "" 
 Line No : 636 
 File Path:     at /var/www/html/drreddy/portal-api/models/task.js 

 DateTime: 2020-02-06 16:59:58 
 Error: error: invalid input syntax for integer: "" 
 Line No : 636 
 File Path:     at /var/www/html/drreddy/portal-api/models/task.js 

 DateTime: 2020-02-06 17:00:11 
 Error: error: invalid input syntax for integer: "" 
 Line No : 636 
 File Path:     at /var/www/html/drreddy/portal-api/models/task.js 

 DateTime: 2020-02-06 17:05:09 
 Error: error: invalid input syntax for integer: "" 
 Line No : 899 
 File Path:     at /var/www/html/drreddy/portal-api/models/task.js 

 DateTime: 2020-02-06 17:09:50 
 Error: error: invalid input syntax for integer: "" 
 Line No : 899 
 File Path:     at /var/www/html/drreddy/portal-api/models/task.js 

 DateTime: 2020-02-06 17:12:04 
 Error: error: invalid input syntax for integer: "" 
 Line No : 899 
 File Path:     at /var/www/html/drreddy/portal-api/models/task.js 

 DateTime: 2020-02-06 17:13:52 
 Error: error: invalid input syntax for integer: "" 
 Line No : 899 
 File Path:     at /var/www/html/drreddy/portal-api/models/task.js 

 DateTime: 2020-02-06 17:15:46 
 Error: error: invalid input syntax for integer: "" 
 Line No : 899 
 File Path:     at /var/www/html/drreddy/portal-api/models/task.js 

 DateTime: 2020-02-06 17:16:51 
 Error: error: invalid input syntax for integer: "" 
 Line No : 899 
 File Path:     at /var/www/html/drreddy/portal-api/models/task.js 

 DateTime: 2020-02-17 15:16:37 
 Error: error: column tbl_tasks.current_ownershipowner does not exist 
 Line No : 636 
 File Path:     at /var/www/html/drreddy/portal-api/models/task.js 

 DateTime: 2020-02-17 15:17:37 
 ReferenceError: extModel is not defined 
 Line No : 3946 
 File Path: /var/www/html/drreddy/portal-api/controllers/task.js 

 DateTime: 2020-02-17 19:22:19 
 ReferenceError: dnd is not defined 
 Line No : 1848 
 File Path: /var/www/html/drreddy/portal-api/controllers/user.js 

 DateTime: 2020-02-26 12:33:32 
 Error: error: syntax error at or near "INNER" 
 Line No : 494 
 File Path:     at /var/www/html/drreddy/portal-api/models/user.js 
