
 DateTime: 2020-03-17 17:28:06 
 ReferenceError: dnd is not defined 
 Line No : 1888 
 File Path: /var/www/html/drreddy/portal-api/controllers/user.js 

 DateTime: 2020-03-17 17:28:15 
 ReferenceError: dnd is not defined 
 Line No : 1888 
 File Path: /var/www/html/drreddy/portal-api/controllers/user.js 

 DateTime: 2020-03-19 12:24:44 
 TypeError: Cannot read property 'company_id' of undefined 
 Line No : 3427 
 File Path:     at /var/www/html/drreddy/portal-api/controllers/task.js 

 DateTime: 2020-03-19 12:24:49 
 TypeError: Cannot read property 'company_id' of undefined 
 Line No : 3427 
 File Path:     at /var/www/html/drreddy/portal-api/controllers/task.js 

 DateTime: 2020-03-19 12:24:53 
 TypeError: Cannot read property 'company_id' of undefined 
 Line No : 3427 
 File Path:     at /var/www/html/drreddy/portal-api/controllers/task.js 

 DateTime: 2020-03-19 12:26:19 
 TypeError: Cannot read property 'company_id' of undefined 
 Line No : 3427 
 File Path:     at /var/www/html/drreddy/portal-api/controllers/task.js 

 DateTime: 2020-03-19 13:02:09 
 TypeError: Cannot read property '0' of undefined 
 Line No : 3052 
 File Path: /var/www/html/drreddy/portal-api/controllers/task.js 

 DateTime: 2020-03-19 13:30:33 
 Error: error: INSERT has more target columns than expressions 
 Line No : 960 
 File Path:     at /var/www/html/drreddy/portal-api/models/task.js 

 DateTime: 2020-03-24 19:12:56 
 Error: Request failed with status code 503 
 Line No : 16 
 File Path: /var/www/html/drreddy/portal-api/node_modules/axios/lib/core/createError.js 

 DateTime: 2020-03-24 19:14:04 
 Error: Request failed with status code 503 
 Line No : 16 
 File Path: /var/www/html/drreddy/portal-api/node_modules/axios/lib/core/createError.js 

 DateTime: 2020-03-25 19:23:34 
 Error: Request failed with status code 503 
 Line No : 16 
 File Path: /var/www/html/drreddy/portal-api/node_modules/axios/lib/core/createError.js 

 DateTime: 2020-03-25 19:23:46 
 Error: Request failed with status code 503 
 Line No : 16 
 File Path: /var/www/html/drreddy/portal-api/node_modules/axios/lib/core/createError.js 

 DateTime: 2020-03-25 19:23:46 
 Error: Request failed with status code 503 
 Line No : 16 
 File Path: /var/www/html/drreddy/portal-api/node_modules/axios/lib/core/createError.js 

 DateTime: 2020-03-26 12:09:08 
 TypeError: Cannot read property 'params' of undefined 
 Line No : 4426 
 File Path: /var/www/html/drreddy/portal-api/controllers/task.js 

 DateTime: 2020-03-26 12:10:02 
 TypeError: element.split is not a function 
 Line No : 4435 
 File Path: /var/www/html/drreddy/portal-api/controllers/task.js 

 DateTime: 2020-03-26 12:12:38 
 ReferenceError: filesArr is not defined 
 Line No : 4436 
 File Path: /var/www/html/drreddy/portal-api/controllers/task.js 

 DateTime: 2020-03-26 12:52:52 
 TypeError: Cannot read property 'zip_files' of undefined 
 Line No : 4460 
 File Path: /var/www/html/drreddy/portal-api/controllers/task.js 

 DateTime: 2020-03-26 12:53:50 
 TypeError: Cannot read property 'zip_files' of undefined 
 Line No : 4460 
 File Path: /var/www/html/drreddy/portal-api/controllers/task.js 

 DateTime: 2020-03-26 12:58:15 
 Error: EEXIST: file already exists, mkdir '/var/www/html/drreddy/portal-api/public/zip_files/6162' 
 Line No : 757 
 File Path: fs.js 

 DateTime: 2020-03-26 13:14:19 
 ReferenceError: filesArr is not defined 
 Line No : 4432 
 File Path: /var/www/html/drreddy/portal-api/controllers/task.js 

 DateTime: 2020-03-26 13:14:52 
 ReferenceError: filesArr is not defined 
 Line No : 4432 
 File Path: /var/www/html/drreddy/portal-api/controllers/task.js 

 DateTime: 2020-03-26 13:15:10 
 ReferenceError: folder is not defined 
 Line No : 4436 
 File Path: /var/www/html/drreddy/portal-api/controllers/task.js 

 DateTime: 2020-03-26 13:15:48 
 ReferenceError: folder is not defined 
 Line No : 4436 
 File Path: /var/www/html/drreddy/portal-api/controllers/task.js 

 DateTime: 2020-03-26 13:18:06 
 TypeError: fs.createWriteStreamSync is not a function 
 Line No : 4465 
 File Path: /var/www/html/drreddy/portal-api/controllers/task.js 

 DateTime: 2020-03-26 13:18:29 
 TypeError: fs.createWriteStreamSync is not a function 
 Line No : 4465 
 File Path: /var/www/html/drreddy/portal-api/controllers/task.js 

 DateTime: 2020-03-26 18:34:30 
 Error: ReferenceError: employee_name is not defined 
 Line No : 1173 
 File Path:     at /var/www/html/drreddy/portal-api/models/task.js 

 DateTime: 2020-03-26 21:18:22 
 TypeError [ERR_INVALID_ARG_TYPE]: The "path" argument must be of type string. Received type object 
 Line No : 125 
 File Path: internal/validators.js 

 DateTime: 2020-03-26 21:18:28 
 TypeError [ERR_INVALID_ARG_TYPE]: The "path" argument must be of type string. Received type object 
 Line No : 125 
 File Path: internal/validators.js 

 DateTime: 2020-03-26 21:18:37 
 TypeError [ERR_INVALID_ARG_TYPE]: The "path" argument must be of type string. Received type object 
 Line No : 125 
 File Path: internal/validators.js 

 DateTime: 2020-03-26 21:19:39 
 TypeError [ERR_INVALID_ARG_TYPE]: The "path" argument must be of type string. Received type object 
 Line No : 125 
 File Path: internal/validators.js 

 DateTime: 2020-03-27 13:07:41 
 Error: error: invalid input syntax for integer: "ba309e534b5f454443ed3ca078bab90be84a28d1" 
 Line No : 739 
 File Path:     at /var/www/html/drreddy/portal-api/models/task.js 

 DateTime: 2020-03-27 14:03:18 
 Error: error: invalid input syntax for integer: "{}" 
 Line No : 739 
 File Path:     at /var/www/html/drreddy/portal-api/models/task.js 

 DateTime: 2020-03-27 14:04:50 
 Error: error: operator does not exist: bigint = integer[] 
 Line No : 739 
 File Path:     at /var/www/html/drreddy/portal-api/models/task.js 

 DateTime: 2020-03-27 14:06:04 
 Error: error: operator does not exist: bigint = integer[] 
 Line No : 739 
 File Path:     at /var/www/html/drreddy/portal-api/models/task.js 

 DateTime: 2020-03-27 14:06:56 
 Error: error: operator does not exist: bigint = integer[] 
 Line No : 739 
 File Path:     at /var/www/html/drreddy/portal-api/models/task.js 

 DateTime: 2020-03-27 14:11:24 
 TypeError: s3Zip.archive(...).pipe(...).then is not a function 
 Line No : 4598 
 File Path: /var/www/html/drreddy/portal-api/controllers/task.js 

 DateTime: 2020-03-27 14:29:27 
 Error: Invalid access 
 Line No : 4605 
 File Path: /var/www/html/drreddy/portal-api/controllers/task.js 

 DateTime: 2020-03-27 14:30:13 
 Error: Invalid access 
 Line No : 4605 
 File Path: /var/www/html/drreddy/portal-api/controllers/task.js 

 DateTime: 2020-03-29 09:28:09 
 Error: Request failed with status code 503 
 Line No : 16 
 File Path: /var/www/html/drreddy/portal-api/node_modules/axios/lib/core/createError.js 
