
 DateTime: 2021-02-03 04:55:52 
 Error: Request failed with status code 503 
 Line No : 16 
 File Path: /var/www/html/drreddy/portal-api/node_modules/axios/lib/core/createError.js 

 DateTime: 2021-02-15 15:40:28 
 Error: error: column "customer_name" of relation "tbl_tasks_translate" does not exist 
 Line No : 443 
 File Path:     at /var/www/html/drreddy/portal-api/models/user.js 

 DateTime: 2021-02-15 15:42:01 
 Error: error: column "batch_number" of relation "tbl_tasks_coa" does not exist 
 Line No : 443 
 File Path:     at /var/www/html/drreddy/portal-api/models/user.js 

 DateTime: 2021-02-23 16:53:44 
 TypeError: Cannot read property '0' of undefined 
 Line No : 9484 
 File Path:     at /var/www/html/drreddy/portal-api/controllers/task.js 

 DateTime: 2021-02-24 19:31:32 
 Error: error: value too long for type character varying(100) 
 Line No : 566 
 File Path:     at /var/www/html/drreddy/portal-api/models/user.js 
