
 DateTime: 2021-07-02 17:42:44 
 Error: Customer has no allocated manager Task ID: 9830 Customer ID: 236 
 Line No : 4184 
 File Path:     at /var/www/html/drreddy/portal-api/controllers/task.js 

 DateTime: 2021-07-02 18:09:56 
 Error: Customer has no allocated manager Task ID: 9831 Customer ID: 236 
 Line No : 4184 
 File Path:     at /var/www/html/drreddy/portal-api/controllers/task.js 

 DateTime: 2021-07-02 18:24:48 
 Error: error: syntax error at or near "order" 
 Line No : 1171 
 File Path:     at /var/www/html/drreddy/portal-api/models/sap.js 

 DateTime: 2021-07-02 18:25:51 
 Error: error: syntax error at or near "order" 
 Line No : 1171 
 File Path:     at /var/www/html/drreddy/portal-api/models/sap.js 

 DateTime: 2021-07-27 15:10:35 
 Error: error: column tbl_master_product.product_name_en does not exist 
 Line No : 1171 
 File Path:     at /application/drreddy/proj-xceed-portal/portal-api/models/sap.js 

 DateTime: 2021-07-27 15:18:53 
 Error: error: column tbl_master_product.product_name_en does not exist 
 Line No : 1171 
 File Path:     at /application/drreddy/proj-xceed-portal/portal-api/models/sap.js 

 DateTime: 2021-07-27 15:22:07 
 Error: error: column tbl_master_product.product_name_en does not exist 
 Line No : 1171 
 File Path:     at /application/drreddy/proj-xceed-portal/portal-api/models/sap.js 

 DateTime: 2021-07-27 15:24:37 
 Error: error: column tbl_master_product.product_name_en does not exist 
 Line No : 1171 
 File Path:     at /application/drreddy/proj-xceed-portal/portal-api/models/sap.js 

 DateTime: 2021-07-27 15:24:49 
 Error: error: column tbl_master_product.product_name_en does not exist 
 Line No : 1171 
 File Path:     at /application/drreddy/proj-xceed-portal/portal-api/models/sap.js 

 DateTime: 2021-07-27 15:25:22 
 Error: error: column tbl_master_product.product_name_en does not exist 
 Line No : 1171 
 File Path:     at /application/drreddy/proj-xceed-portal/portal-api/models/sap.js 

 DateTime: 2021-07-27 15:26:49 
 Error: error: column tbl_master_product.product_name_en does not exist 
 Line No : 1171 
 File Path:     at /application/drreddy/proj-xceed-portal/portal-api/models/sap.js 

 DateTime: 2021-07-30 10:12:57 
 Error: Request failed with status code 403 
 Line No : 16 
 File Path: /application/drreddy/proj-xceed-portal/portal-api/node_modules/axios/lib/core/createError.js 

 DateTime: 2021-07-30 10:13:40 
 Error: Request failed with status code 403 
 Line No : 16 
 File Path: /application/drreddy/proj-xceed-portal/portal-api/node_modules/axios/lib/core/createError.js 

 DateTime: 2021-07-30 15:27:51 
 Error: Request failed with status code 403 
 Line No : 16 
 File Path: /application/drreddy/proj-xceed-portal/portal-api/node_modules/axios/lib/core/createError.js 

 DateTime: 2021-07-30 15:27:51 
 Error: Request failed with status code 403 
 Line No : 16 
 File Path: /application/drreddy/proj-xceed-portal/portal-api/node_modules/axios/lib/core/createError.js 
